\relax 
\providecommand\hyper@newdestlabel[2]{}
\providecommand\HyperFirstAtBeginDocument{\AtBeginDocument}
\HyperFirstAtBeginDocument{\ifx\hyper@anchor\@undefined
\global\let\oldcontentsline\contentsline
\gdef\contentsline#1#2#3#4{\oldcontentsline{#1}{#2}{#3}}
\global\let\oldnewlabel\newlabel
\gdef\newlabel#1#2{\newlabelxx{#1}#2}
\gdef\newlabelxx#1#2#3#4#5#6{\oldnewlabel{#1}{{#2}{#3}}}
\AtEndDocument{\ifx\hyper@anchor\@undefined
\let\contentsline\oldcontentsline
\let\newlabel\oldnewlabel
\fi}
\fi}
\global\let\hyper@last\relax 
\gdef\HyperFirstAtBeginDocument#1{#1}
\providecommand\HyField@AuxAddToFields[1]{}
\providecommand\HyField@AuxAddToCoFields[2]{}
\@writefile{faq}{\contentsline {questions}{Introduction}{2}{section*.1}\protected@file@percent }
\@writefile{tdo}{\contentsline {todo}{\textbf  {Introduction}}{2}{section*.2}\protected@file@percent }
\pgfsyspdfmark {pgfid1}{20112834}{46026545}
\newlabel{Intro}{{1}{2}{}{section*.2}{}}
\@writefile{faq}{\contentsline {questions}{Spending Gold or Value Packs}{2}{section*.3}\protected@file@percent }
\@writefile{tdo}{\contentsline {todo}{\textbf  {Spending Gold or Value Packs}}{2}{section*.4}\protected@file@percent }
\pgfsyspdfmark {pgfid2}{20112834}{41380756}
\newlabel{Gold and Money}{{2}{2}{}{section*.4}{}}
\@writefile{faq}{\contentsline {questions}{Priority}{2}{section*.5}\protected@file@percent }
\@writefile{tdo}{\contentsline {todo}{\textbf  {Priority}}{2}{section*.6}\protected@file@percent }
\pgfsyspdfmark {pgfid3}{20112834}{33087281}
\newlabel{Priority}{{3}{2}{}{section*.6}{}}
\@writefile{faq}{\contentsline {questions}{Exploration}{2}{section*.7}\protected@file@percent }
\@writefile{tdo}{\contentsline {todo}{\textbf  {Exploration}}{2}{section*.8}\protected@file@percent }
\pgfsyspdfmark {pgfid4}{20112834}{22935453}
\newlabel{Exploration}{{4}{2}{}{section*.8}{}}
\@writefile{faq}{\contentsline {questions}{Intelligence}{2}{section*.9}\protected@file@percent }
\@writefile{tdo}{\contentsline {todo}{\textbf  {Intelligence}}{2}{section*.10}\protected@file@percent }
\pgfsyspdfmark {pgfid5}{20112834}{14638389}
\newlabel{Intelligence}{{5}{2}{}{section*.10}{}}
\@writefile{faq}{\contentsline {questions}{Fiends --- Normal Monsters}{2}{section*.11}\protected@file@percent }
\@writefile{tdo}{\contentsline {todo}{\textbf  {Fiends --- Normal Monsters}}{2}{section*.12}\protected@file@percent }
\pgfsyspdfmark {pgfid6}{20112834}{9992600}
\newlabel{Trash Mobs}{{6}{2}{}{section*.12}{}}
\@writefile{faq}{\contentsline {questions}{Growing Stronger}{3}{section*.13}\protected@file@percent }
\@writefile{tdo}{\contentsline {todo}{\textbf  {Growing Stronger}}{3}{section*.14}\protected@file@percent }
\pgfsyspdfmark {pgfid7}{20112834}{38813699}
\newlabel{Grinding}{{7}{3}{}{section*.14}{}}
\@writefile{faq}{\contentsline {questions}{License and Disclosure Statement}{3}{section*.15}\protected@file@percent }
\@writefile{tdo}{\contentsline {todo}{\textbf  {License and Disclosure Statement}}{3}{section*.16}\protected@file@percent }
\pgfsyspdfmark {pgfid8}{20112834}{34174368}
\newlabel{License and Disclosure}{{8}{3}{}{section*.16}{}}
\gdef \@abspage@last{3}
