\relax 
\providecommand\hyper@newdestlabel[2]{}
\providecommand\HyperFirstAtBeginDocument{\AtBeginDocument}
\HyperFirstAtBeginDocument{\ifx\hyper@anchor\@undefined
\global\let\oldcontentsline\contentsline
\gdef\contentsline#1#2#3#4{\oldcontentsline{#1}{#2}{#3}}
\global\let\oldnewlabel\newlabel
\gdef\newlabel#1#2{\newlabelxx{#1}#2}
\gdef\newlabelxx#1#2#3#4#5#6{\oldnewlabel{#1}{{#2}{#3}}}
\AtEndDocument{\ifx\hyper@anchor\@undefined
\let\contentsline\oldcontentsline
\let\newlabel\oldnewlabel
\fi}
\fi}
\global\let\hyper@last\relax 
\gdef\HyperFirstAtBeginDocument#1{#1}
\providecommand\HyField@AuxAddToFields[1]{}
\providecommand\HyField@AuxAddToCoFields[2]{}
\@writefile{faq}{\contentsline {questions}{Introduction}{2}{section*.1}\protected@file@percent }
\@writefile{tdo}{\contentsline {todo}{\textbf  {Introduction}}{2}{section*.2}\protected@file@percent }
\pgfsyspdfmark {pgfid1}{20112834}{46026545}
\newlabel{Intro}{{1}{2}{}{section*.2}{}}
\@writefile{faq}{\contentsline {questions}{Spending Gold or Value Packs}{2}{section*.3}\protected@file@percent }
\@writefile{tdo}{\contentsline {todo}{\textbf  {Spending Gold or Value Packs}}{2}{section*.4}\protected@file@percent }
\pgfsyspdfmark {pgfid2}{20112834}{41380756}
\newlabel{Gold and Money}{{2}{2}{}{section*.4}{}}
\@writefile{faq}{\contentsline {questions}{Planning}{2}{section*.5}\protected@file@percent }
\@writefile{tdo}{\contentsline {todo}{\textbf  {Planning}}{2}{section*.6}\protected@file@percent }
\pgfsyspdfmark {pgfid3}{20112834}{35754693}
\newlabel{Priority}{{3}{2}{}{section*.6}{}}
\@writefile{faq}{\contentsline {questions}{Primary Knights}{2}{section*.7}\protected@file@percent }
\@writefile{tdo}{\contentsline {todo}{\textbf  {Primary Knights}}{2}{section*.8}\protected@file@percent }
\pgfsyspdfmark {pgfid4}{20112834}{25003714}
\newlabel{Primary Knights}{{4}{2}{}{section*.8}{}}
\@writefile{faq}{\contentsline {questions}{Stats}{2}{section*.9}\protected@file@percent }
\@writefile{tdo}{\contentsline {todo}{\textbf  {Stats}}{2}{section*.10}\protected@file@percent }
\pgfsyspdfmark {pgfid5}{20112834}{7886323}
\newlabel{Stats}{{5}{2}{}{section*.10}{}}
\@writefile{faq}{\contentsline {questions}{Talents}{3}{section*.11}\protected@file@percent }
\@writefile{tdo}{\contentsline {todo}{\textbf  {Talents}}{3}{section*.12}\protected@file@percent }
\pgfsyspdfmark {pgfid6}{20112834}{31765905}
\newlabel{Talents}{{6}{3}{}{section*.12}{}}
\@writefile{faq}{\contentsline {questions}{Skills}{3}{section*.13}\protected@file@percent }
\@writefile{tdo}{\contentsline {todo}{\textbf  {Skills}}{3}{section*.14}\protected@file@percent }
\pgfsyspdfmark {pgfid7}{20112834}{16513620}
\newlabel{Skills}{{7}{3}{}{section*.14}{}}
\@writefile{faq}{\contentsline {questions}{Growing Stronger}{3}{section*.15}\protected@file@percent }
\@writefile{tdo}{\contentsline {todo}{\textbf  {Growing Stronger}}{3}{section*.16}\protected@file@percent }
\pgfsyspdfmark {pgfid8}{20112834}{5635259}
\newlabel{Grinding}{{8}{4}{}{section*.16}{}}
\@writefile{faq}{\contentsline {questions}{License and Disclosure Statement}{4}{section*.17}\protected@file@percent }
\@writefile{tdo}{\contentsline {todo}{\textbf  {License and Disclosure Statement}}{4}{section*.18}\protected@file@percent }
\pgfsyspdfmark {pgfid9}{20112834}{45135255}
\newlabel{License and Disclosure}{{9}{4}{}{section*.18}{}}
\gdef \@abspage@last{4}
